{
    "href": "https://api.ebay.com/buy/browse/v1/item_summary/search?q=brakes&limit=3&category_ids=33559&compatibility_filter=Year%3A2018%2CMake%3ABMW%2CModel%3A318i%2CTrim%3AExecutive%20Sedan%204%2DDoor%2CEngine%3A1%2E5L%201499CC%20l3%20GAS%20DOHC%20Turbocharged&offset=0",
    "total": 85,
    "next": "https://api.ebay.com/buy/browse/v1/item_summary/search?q=brakes&limit=3&category_ids=33559&compatibility_filter=Year%3A2018%2CMake%3ABMW%2CModel%3A318i%2CTrim%3AExecutive%20Sedan%204%2DDoor%2CEngine%3A1%2E5L%201499CC%20l3%20GAS%20DOHC%20Turbocharged&offset=50",
    "limit": 3,
    "offset": 0,
    "itemSummaries": [
        {
            "itemId": "v1|2**********2|0",
            "title": "For BMW 1 3 5 7 Series X3 X5 X6 White Emblem LED Background Light 6000K 1PC 82mm",
            "image": {
                "imageUrl": "https://i.ebayimg.com/thumbs/images/g/P**********C/s-l225.jpg"
            },
            "price": {
                "value": "7.62",
                "currency": "USD"
            },
            "itemHref": "https://api.ebay.com/buy/browse/v1/item/v1|2**********2|0",
            "seller": {
                "username": "c**********h",
                "feedbackPercentage": "98.9",
                "feedbackScore": 1202
            },
            "marketingPrice": {
                "originalPrice": {
                    "value": "10.89",
                    "currency": "USD"
                },
                "discountPercentage": "30",
                "discountAmount": {
                    "value": "3.27",
                    "currency": "USD"
                }
            },
            "condition": "New",
            "conditionId": "1000",
            "thumbnailImages": [
                {
                    "imageUrl": "https://i.ebayimg.com/00/s/O**********=/z/PSUAAOSwW4RbneKC/$_0.JPG?set_id=8**********F"
                }
            ],
            "shippingOptions": [
                {
                    "shippingCostType": "FIXED",
                    "shippingCost": {
                        "value": "0.00",
                        "currency": "USD"
                    }
                }
            ],
            "buyingOptions": [
                "FIXED_PRICE"
            ],
            "currentBidPrice": {
                "value": "7.62",
                "currency": "USD"
            },
            "epid": "1044239019",
            "itemWebUrl": "https://www.ebay.com/itm/For-BMW-1-3-5-7-Series-X3-X5-X6-White-Emblem-LED-Background-Light-6000K-1PC-82mm/2**********2?fits=Year%3A2018%7CModel%3A318i%7CSubmodel%3AExecutive%7CEngine+-+Liter_Display%3A1.5L%7CMake%3ABMW&hash=item3**********C",
            "itemLocation": {
                "postalCode": "9****",
                "country": "US"
            },
            "leafCategoryIds": [
                "172517"
            ],
            "categories": [
                {
                    "categoryId": "42605",
                    "categoryName": "Other Car & Truck Brakes"
                },
                {
                    "categoryId": "6000",
                    "categoryName": "eBay Motors"
                },
                {
                    "categoryId": "6028",
                    "categoryName": "Auto Parts & Accessories"
                },
                {
                    "categoryId": "6030",
                    "categoryName": "Car & Truck Parts & Accessories"
                },
                {
                    "categoryId": "33559",
                    "categoryName": "Car & Truck Brakes & Brake Parts"
                },
                {
                    "categoryId": "33707",
                    "categoryName": "Car & Truck Lighting & Lamps"
                },
                {
                    "categoryId": "172517",
                    "categoryName": "Car & Truck Light Bulbs & LEDs"
                }
            ],
            "additionalImages": [
                {
                    "imageUrl": "https://galleryplus.ebayimg.com/ws/web/2**********2_2_0_1/225x225.jpg"
                },
                {
                    "imageUrl": "https://galleryplus.ebayimg.com/ws/web/2**********2_3_0_1/225x225.jpg"
                },
                {
                    "imageUrl": "https://galleryplus.ebayimg.com/ws/web/2**********2_4_0_1/225x225.jpg"
                },
                {
                    "imageUrl": "https://galleryplus.ebayimg.com/ws/web/2**********2_5_0_1/225x225.jpg"
                },
                {
                    "imageUrl": "https://galleryplus.ebayimg.com/ws/web/2**********2_6_0_1/225x225.jpg"
                },
                {
                    "imageUrl": "https://galleryplus.ebayimg.com/ws/web/2**********2_7_0_1/225x225.jpg"
                }
            ],
            "adultOnly": false,
            "priorityListing": true,
            "compatibilityProperties": [
                {
                    "name": "Year",
                    "localizedName": "Year",
                    "value": "2018"
                },
                {
                    "name": "Make",
                    "localizedName": "Make",
                    "value": "BMW"
                },
                {
                    "name": "Model",
                    "localizedName": "Model",
                    "value": "318i"
                },
                {
                    "name": "Trim",
                    "localizedName": "Trim",
                    "value": "Executive Sedan 4-Door"
                },
                {
                    "name": "Engine",
                    "localizedName": "Engine",
                    "value": "1.5L 1499CC l3 GAS DOHC Turbocharged"
                }
            ],
            "compatibilityMatch": "EXACT",
            "availableCoupons": false,
            "itemCreationDate": "2022-08-25T07:14:44.000Z",
            "itemOriginDate": "2022-08-25T07:14:44.000Z",
            "legacyItemId": "2**********2"
        },
        {
            "itemId": "v1|1**********0|0",
            "title": "Car Suv Air Brake Fluid Replacement Pumping Oil Drained Exchange Tools Device",
            "image": {
                "imageUrl": "https://i.ebayimg.com/thumbs/images/g/A**********j/s-l225.jpg"
            },
            "price": {
                "value": "21.75",
                "currency": "USD"
            },
            "itemHref": "https://api.ebay.com/buy/browse/v1/item/v1|1**********0|0",
            "seller": {
                "username": "x**********6",
                "feedbackPercentage": "99.3",
                "feedbackScore": 1697
            },
            "marketingPrice": {
                "originalPrice": {
                    "value": "22.89",
                    "currency": "USD"
                },
                "discountPercentage": "4",
                "discountAmount": {
                    "value": "1.14",
                    "currency": "USD"
                }
            },
            "condition": "New",
            "conditionId": "1000",
            "thumbnailImages": [
                {
                    "imageUrl": "https://i.ebayimg.com/00/s/O**********=/z/A0sAAOSwUKxYZgPj/$_0.JPG?set_id=8**********F"
                }
            ],
            "shippingOptions": [
                {
                    "shippingCostType": "FIXED",
                    "shippingCost": {
                        "value": "0.00",
                        "currency": "USD"
                    }
                }
            ],
            "buyingOptions": [
                "FIXED_PRICE"
            ],
            "currentBidPrice": {
                "value": "21.75",
                "currency": "USD"
            },
            "epid": "4016652514",
            "itemWebUrl": "https://www.ebay.com/itm/Car-Suv-Air-Brake-Fluid-Replacement-Pumping-Oil-Drained-Exchange-Tools-Device/1**********0?fits=Year%3A2018%7CModel%3A318i%7CSubmodel%3AExecutive%7CEngine+-+Liter_Display%3A1.5L%7CMake%3ABMW&hash=item1**********j",
            "itemLocation": {
                "country": "CN"
            },
            "leafCategoryIds": [
                "33563",
                "35625"
            ],
            "categories": [
                {
                    "categoryId": "33563",
                    "categoryName": "Car & Truck Calipers & Brackets"
                },
                {
                    "categoryId": "35625",
                    "categoryName": "Other Automotive Hand Tools"
                },
                {
                    "categoryId": "6000",
                    "categoryName": "eBay Motors"
                },
                {
                    "categoryId": "6028",
                    "categoryName": "Auto Parts & Accessories"
                },
                {
                    "categoryId": "6030",
                    "categoryName": "Car & Truck Parts & Accessories"
                },
                {
                    "categoryId": "33559",
                    "categoryName": "Car & Truck Brakes & Brake Parts"
                },
                {
                    "categoryId": "34998",
                    "categoryName": "Automotive Tools & Supplies"
                },
                {
                    "categoryId": "43990",
                    "categoryName": "Automotive Hand Tools"
                }
            ],
            "additionalImages": [
                {
                    "imageUrl": "https://galleryplus.ebayimg.com/ws/web/1**********0_2_0_1/225x225.jpg"
                },
                {
                    "imageUrl": "https://galleryplus.ebayimg.com/ws/web/1**********0_3_0_1/225x225.jpg"
                },
                {
                    "imageUrl": "https://galleryplus.ebayimg.com/ws/web/1**********0_4_0_1/225x225.jpg"
                },
                {
                    "imageUrl": "https://galleryplus.ebayimg.com/ws/web/1**********0_5_0_1/225x225.jpg"
                },
                {
                    "imageUrl": "https://galleryplus.ebayimg.com/ws/web/1**********0_6_0_1/225x225.jpg"
                },
                {
                    "imageUrl": "https://galleryplus.ebayimg.com/ws/web/1**********0_7_0_1/225x225.jpg"
                },
                {
                    "imageUrl": "https://galleryplus.ebayimg.com/ws/web/1**********0_8_0_1/225x225.jpg"
                },
                {
                    "imageUrl": "https://galleryplus.ebayimg.com/ws/web/1**********0_9_0_1/225x225.jpg"
                },
                {
                    "imageUrl": "https://galleryplus.ebayimg.com/ws/web/1**********0_10_0_1/225x225.jpg"
                },
                {
                    "imageUrl": "https://galleryplus.ebayimg.com/ws/web/1**********0_11_0_1/225x225.jpg"
                }
            ],
            "adultOnly": false,
            "priorityListing": true,
            "compatibilityProperties": [
                {
                    "name": "Year",
                    "localizedName": "Year",
                    "value": "2018"
                },
                {
                    "name": "Make",
                    "localizedName": "Make",
                    "value": "BMW"
                },
                {
                    "name": "Model",
                    "localizedName": "Model",
                    "value": "318i"
                },
                {
                    "name": "Trim",
                    "localizedName": "Trim",
                    "value": "Executive Sedan 4-Door"
                },
                {
                    "name": "Engine",
                    "localizedName": "Engine",
                    "value": "1.5L 1499CC l3 GAS DOHC Turbocharged"
                }
            ],
            "compatibilityMatch": "EXACT",
            "availableCoupons": false,
            "itemCreationDate": "2022-08-25T07:14:44.000Z",
            "itemOriginDate": "2022-08-25T07:14:44.000Z",
            "legacyItemId": "1**********0"
        },
        {
            "itemId": "v1|2**********0|0",
            "title": "Dorman H621950 Front Brake Hose",
            "image": {
                "imageUrl": "https://i.ebayimg.com/thumbs/images/g/h**********z/s-l225.jpg"
            },
            "price": {
                "value": "18.86",
                "currency": "USD"
            },
            "itemHref": "https://api.ebay.com/buy/browse/v1/item/v1|2**********0|0",
            "seller": {
                "username": "k**********c",
                "feedbackPercentage": "99.7",
                "feedbackScore": 14216
            },
            "condition": "New",
            "conditionId": "1000",
            "thumbnailImages": [
                {
                    "imageUrl": "https://i.ebayimg.com/00/s/M**********=/z/hZwAAOSwknJX1vXz/$_0.JPG?set_id=8**********C"
                }
            ],
            "shippingOptions": [
                {
                    "shippingCostType": "FIXED",
                    "shippingCost": {
                        "value": "0.00",
                        "currency": "USD"
                    }
                }
            ],
            "buyingOptions": [
                "FIXED_PRICE"
            ],
            "currentBidPrice": {
                "value": "18.86",
                "currency": "USD"
            },
            "epid": "222713632",
            "itemWebUrl": "https://www.ebay.com/itm/Dorman-H621950-Front-Brake-Hose/2**********0?fits=Year%3A2018%7CModel%3A318i%7CSubmodel%3AExecutive%7CEngine+-+Liter_Display%3A1.5L%7CMake%3ABMW&hash=item3**********z",
            "itemLocation": {
                "postalCode": "1****",
                "country": "US"
            },
            "leafCategoryIds": [
                "33561"
            ],
            "categories": [
                {
                    "categoryId": "33561",
                    "categoryName": "Car & Truck Brake Hoses, Lines & Fittings"
                },
                {
                    "categoryId": "6000",
                    "categoryName": "eBay Motors"
                },
                {
                    "categoryId": "6028",
                    "categoryName": "Auto Parts & Accessories"
                },
                {
                    "categoryId": "6030",
                    "categoryName": "Car & Truck Parts & Accessories"
                },
                {
                    "categoryId": "33559",
                    "categoryName": "Car & Truck Brakes & Brake Parts"
                }
            ],
            "adultOnly": false,
            "priorityListing": true,
            "compatibilityProperties": [
                {
                    "name": "Year",
                    "localizedName": "Year",
                    "value": "2018"
                },
                {
                    "name": "Make",
                    "localizedName": "Make",
                    "value": "BMW"
                },
                {
                    "name": "Model",
                    "localizedName": "Model",
                    "value": "318i"
                },
                {
                    "name": "Trim",
                    "localizedName": "Trim",
                    "value": "Executive Sedan 4-Door"
                },
                {
                    "name": "Engine",
                    "localizedName": "Engine",
                    "value": "1.5L 1499CC l3 GAS DOHC Turbocharged"
                }
            ],
            "compatibilityMatch": "EXACT",
            "availableCoupons": false,
            "itemCreationDate": "2022-08-25T07:14:44.000Z",
            "itemOriginDate": "2022-08-25T07:14:44.000Z",
            "legacyItemId": "2**********0"
        }
    ]
}